{
    "data": [
        {
            "id": "c9uC2gTa",
            "title": "Thunderstruck",
            "type": "image\/png",
            "link": "https:\/\/i.imgur.com\/L0J0tKe.png"
        }, {
            "id": "wNd7Uvo",
            "title": "Thunderstruck?",
            "images": [{
                "id": "L0J0tKe",
                "title": null,
                "type": "image\/png",
                "link": "https:\/\/i.imgur.com\/L0J0tKe.png"
            }]
        }
    ],
    "success": true,
    "status": 200
}
